core_cm0plus.h:985:34:__NVIC_SystemReset	8	static,ignoring_inline_asm
main.c:81:5:main	120	static
main.c:152:6:SystemClock_Config	168	static
main.c:200:13:MX_TIM7_Init	24	static
main.c:238:13:MX_USART2_UART_Init	8	static
main.c:286:13:MX_GPIO_Init	48	static
main.c:315:6:vApplicationGetIdleTaskMemory	24	static
main.c:327:6:vApplicationGetTimerTaskMemory	24	static
main.c:334:6:vTask_Task1	16	static
main.c:349:6:HAL_UART_TxCpltCallback	16	static
main.c:355:6:HAL_UART_RxCpltCallback	24	static
main.c:378:6:cmdProcess	40	static
main.c:406:6:HAL_TIM_PeriodElapsedCallback	16	static
main.c:423:6:Error_Handler	8	static,ignoring_inline_asm
